1 10 20
100 200 125
201 210 89
900 1000 174
1001 1010 143
1000 2000 182
1 999999 525
999999 1 525
21 22 16
55 55 113
1999 2001 113
1 1 1
2 2 2
3 3 8
4 4 3
5 5 6
47 52 105
1 5 8
111 112 70
123 321 131
876 678 179
234 423 144
222 222 71
11 22 21
22 33 112
33 44 110
44 55 113
55 66 113
66 77 116
77 88 111
88 99 119
11 99 119
100 110 114
110 120 114
120 130 122
130 140 91
140 150 117
150 160 86
160 170 112
170 180 125
180 190 107
190 200 120
121 212 125
232 323 131
343 434 134
454 545 142
565 656 145
676 767 171
787 878 179
898 989 174
121 989 179
1111 2222 182
2222 3333 217
3333 4444 238
4444 5555 210
5555 6666 262
6666 7777 257
7777 8888 252
8888 9999 260
1111 9999 262
10000 12345 268
12345 54321 340
147 741 171
258 852 171
369 963 179
9998 9999 92
9999 10001 180
6485 6845 244
156 654 145
351 654 145
3564 1 217
548 3654 217
514 584 137
3224 3542 181
8564 8663 172
3451 45548 324
15 4563 238
564 5643 238
415 5486 238
8564 48653 324
64 6854 262
8645 8651 141
918 4981 238
964 654 179
6354 8546 257
3743 4856 215
587 687 145
63248 81678 351
458 6504 262
84 6054 238
9870 9987 242
408 560 142
8 84 116
82 854 171
489 608 142
3054 3204 199
680 856 171
61 61 20
371 3218 217
4153 4856 215
897 1455 182
4065 488 238
1655 987 182
687 56 145
315 452 144
48563 68545 340
456 8421 262
36541 46358 314
