1 10 20
100 200 125
201 210 89
900 1000 174
1 5 8
20 30 112
31 35 107
40 43 110
10 11 15
111 222 125
121 173 125
321 432 144
2 7 17
19 43 112
37 71 113
67 91 116
20 10 21
15 13 18
12 8 20
5 1 8
1 1 1
2 2 2
10 10 7
100 100 26
1 9999 262
2 8134 262
3 100000 351
4 21312 279
10000 100000 351
5 1023 179
134 3265 217
2000 2431 183
3165 3167 168
10000 900 262
560 10 144
400 399 121
513 436 142
12 12 10
333 333 113
400 400 28
300 300 17
111 111 70
222 222 71
333 333 113
444 444 72
20 20 8
30 30 19
40 40 9
50 50 25
21 11 21
32 5 112
18 3 21
5 1 8
10 99 119
11 88 116
12 66 113
40 460 144
100 200 125
200 300 128
400 500 142
500 600 137
1122 2233 183
2233 3344 217
4455 5566 210
6677 7788 257
33 333 144
44 4444 238
55 555 144
66 6676 262
1222 3222 217
40 40 9
111 99 114
60 52 113
2331 999 183
500 500 111
430 430 103
100 105 88
12 36 112
4 9912 262
6 12000 268
10000 15000 276
100 150 122
150 200 125
250 300 123
300 350 144
1 15 20
1 30 112
1 45 112
1 60 113
300 600 144
600 900 179
900 1200 182
1200 1500 177
5000 5500 192
5500 6000 236
6500 7000 257
7000 7500 239
10000 15000 276
15000 20000 279
20000 25000 282
765 891 179
50001 60004 340
20000 40000 324
1 30146 308
1 999999 525
40235 50125 314
31254 54325 340
13415 21323 279
13431 53543 340
63453 45432 340
52474 134532 354
64355 745343 509
231453 425464 449
425435 426543 356
11112 343425 443
324135 43256 443
23524 43254 324
54462 99874 351
45936 650044 509
5222 45224 324
6524 8429 257
5242 6367 262
23904 64533 340
23509 23554 282
12345 56795 340
234 464 144
342 123 144
534 534 23
3453 4325 238
3444 4443 238
