...............
----------------------------------------------------------------------
Ran 15 tests in 0.036s

OK
Name             Stmts   Miss Branch BrPart  Cover   Missing
------------------------------------------------------------
Collatz.py          26      0     10      0   100%
TestCollatz.py      66      0      2      0   100%
------------------------------------------------------------
TOTAL               92      0     12      0   100%