1 10 20
1 1 1
2 2 2
10 1 20
9 13 20
1 1 1
1 2 2
3 9 20
2 1 2
3 2 8
9 8 20
100 200 125
201 210 89
900 1000 174
1000 2000 182
2000 3000 217
3000 4000 238
4000 5000 215
5000 6000 236
6000 7000 262
7000 8000 252
8000 9000 247
9000 10000 260
10000 11000 268
11000 12000 250
12000 13000 263
13000 14000 276
14000 15000 271
15000 16000 271
16000 17000 266
17000 18000 279
18000 19000 261
19000 20000 274
20000 21000 256
21000 22000 269
22000 23000 269
12 1 20
100000 410000 443
110000 420000 449
120000 430000 449
130000 440000 449
140000 450000 449
150000 460000 449
160000 470000 449
170000 480000 449
180000 490000 449
190000 400000 443
200000 410000 443
210000 420000 449
220000 430000 449
300000 410000 441
310000 400000 441
320000 430000 449
330000 440000 449
340000 450000 449
350000 460000 449
360000 470000 449
370000 480000 449
380000 490000 449
390000 400000 405
300000 410000 441
310000 420000 449
320000 430000 449
1 12000 268
1 13000 268
1 14000 276
1 15000 276
1 16000 276
1 17000 276
1 18000 279
1 19000 279
1 20000 279
12 12000 268
13 13000 268
14 14000 276
1 15000 276
15 16000 276
16 17000 276
17 18000 279
18 19000 279
19 20000 279
900000 900022 233
10 12000 268
11 13000 268
12 14000 276
13 15000 276
14 16000 276
15 17000 276
16 18000 279
17 19000 279
18 20000 279
124 12000 268
133 13000 268
194 14000 276
18 15000 276
135 16000 276
416 17000 276
517 18000 279
718 19000 279
719 20000 279
9 4 20
