........................
----------------------------------------------------------------------
Ran 24 tests in 0.045s

OK
Name             Stmts   Miss Branch BrPart  Cover   Missing
------------------------------------------------------------
Collatz.py          42      0     16      0   100%
TestCollatz.py      99      0      6      0   100%
------------------------------------------------------------
TOTAL              141      0     22      0   100%
