......................
----------------------------------------------------------------------
Ran 22 tests in 0.085s

OK
Name             Stmts   Miss Branch BrPart  Cover   Missing
------------------------------------------------------------
Collatz.py          58      0     24      0   100%
TestCollatz.py      94      0      2      0   100%
------------------------------------------------------------
TOTAL              152      0     26      0   100%
